tezt/_regressions/alpha.alpha.raw_level.out

./tezos-codec encode alpha.raw_level from 2147483647
7fffffff

./tezos-codec decode alpha.raw_level from 7fffffff
2147483647

./tezos-codec encode alpha.raw_level from 0
00000000

./tezos-codec decode alpha.raw_level from 00000000
0
