tezt/_regressions/alpha.alpha.cycle.out

./tezos-codec encode alpha.cycle from 2147483647
7fffffff

./tezos-codec decode alpha.cycle from 7fffffff
2147483647

./tezos-codec encode alpha.cycle from 0
00000000

./tezos-codec decode alpha.cycle from 00000000
0
