tezt/_regressions/alpha.alpha.vote.ballot.out

./tezos-codec encode alpha.vote.ballot from '"nay"'
01

./tezos-codec decode alpha.vote.ballot from 01
"nay"

./tezos-codec encode alpha.vote.ballot from '"pass"'
02

./tezos-codec decode alpha.vote.ballot from 02
"pass"

./tezos-codec encode alpha.vote.ballot from '"yay"'
00

./tezos-codec decode alpha.vote.ballot from 00
"yay"
